module gitlab.com/bendre1990/composeps

go 1.21.6

require github.com/docker/docker v25.0.3+incompatible

require (
	github.com/imdario/mergo v0.3.16 // indirect
	github.com/mattn/go-runewidth v0.0.15 // indirect
	github.com/mattn/go-shellwords v1.0.12 // indirect
	github.com/mitchellh/mapstructure v1.5.0 // indirect
	github.com/rivo/uniseg v0.2.0 // indirect
	github.com/sirupsen/logrus v1.9.0 // indirect
	github.com/xeipuuv/gojsonpointer v0.0.0-20180127040702-4e3ac2762d5f // indirect
	github.com/xeipuuv/gojsonreference v0.0.0-20180127040603-bd5ef7bd5415 // indirect
	github.com/xeipuuv/gojsonschema v1.2.0 // indirect
	golang.org/x/exp v0.0.0-20230713183714-613f0c0eb8a1 // indirect
	golang.org/x/sync v0.3.0 // indirect
	gopkg.in/yaml.v3 v3.0.1 // indirect
)

require (
	github.com/Microsoft/go-winio v0.4.14 // indirect
	github.com/compose-spec/compose-go v1.20.2
	github.com/distribution/reference v0.5.0 // indirect
	github.com/docker/go-connections v0.5.0 // indirect
	github.com/docker/go-units v0.5.0 // indirect
	github.com/felixge/httpsnoop v1.0.4 // indirect
	github.com/go-logr/logr v1.4.1 // indirect
	github.com/go-logr/stdr v1.2.2 // indirect
	github.com/gogo/protobuf v1.3.2 // indirect
	github.com/jedib0t/go-pretty/v6 v6.5.4
	github.com/opencontainers/go-digest v1.0.0 // indirect
	github.com/opencontainers/image-spec v1.0.2 // indirect
	github.com/pkg/errors v0.9.1 // indirect
	go.opentelemetry.io/contrib/instrumentation/net/http/otelhttp v0.48.0 // indirect
	go.opentelemetry.io/otel v1.23.1 // indirect
	go.opentelemetry.io/otel/metric v1.23.1 // indirect
	go.opentelemetry.io/otel/trace v1.23.1 // indirect
	golang.org/x/sys v0.16.0 // indirect
)
